1-
a- 5
b- 06FF9E52
c- 5 ou erreur (val n'est pas un pointeur)
d- 06FF5C34
e- Erreur ou 06FF5C34 (pVal n'est pas une variable)
f- 5
g- 06FF9E52
h- pas un pointeur 
i- 06FF9E52
j- car int& rVal est une déclaration de référence

2-
a) copie
b) copie
c) référence
d) adresse
e) copie
f)	erreur ou adresse de A
g)	erreur ou adresse de A
h)	2

3)	
	10 " " 20
	20 " " 10

4)
	10 " " 20
	10 " " 20

5)
	10 " " 20
	20 " " 10